Reanalysis of Somerville et al. (2016):Animal Management at the Ancient Metropolis of Teotihuacan, Mexico: Stable Isotope Analysis of Leporid (Cottontail and Jackrabbit) Bone Mineral
…
The first step in their analysis is to remove samples potentially affected by diagenisis. In this article, they tested a random sample (n=101) of bone for potential post-depositional alteration to the mineral structure. Using FTIR, they tested the carbonate to phospate ratios (C/P) and infrared splitting factor (IR-SF) using FTIR and removed samples which fell outside of the expected ranges of 0.1 and 0.5 for C/P and 2.0 and 4.0 for IR-SF. The samples that they removed are marked in grey in the supplimentary data.

Here, I used the filter function to select only those rows where C/P and IR-SF fell within the expected ranges, and saved this as a new dataset iso. I also needed to make sure the rows with NA values were still included, since only a random sample was analysed. I did this using the | notation which functions like OR. Since the FTIR analysis returned both C/P and IR-SF values, I only need to include one is.na function here. I also excluded an outlier with an extremely low O18 that they excluded by converting this number to NA, as the samples 13C value was still incorperated in the analysis.

#to filter out only Lepus and Sylvilagus genus, I first needed to define the column as a factor
iso_total$Genus<-as.factor(iso_total$Genus)
iso<-filter(iso_total, (Genus=="Lepus" | Genus=="Sylvilagus") & between (C.P, 0.1, 0.5)&between (IR.SF, 2.0, 4.0) | (is.na(IR.SF))) #brackets around the Genus filter were important here, otherwise the | worked on everything that came after
iso$O18ap[iso$O18ap==11.9]<-NA #couldn't figure out how to get this to work with dplyr or chaining
iso            

## # A tibble: 121 x 16
##      lab_n Spec.or.Tag..         Site Unit.Project Provenience.Location.A
##      <chr>         <chr>        <chr>        <chr>                  <chr>
##  1 AS-0315    A-1224.001 Moon Pyramid  Structure 2                  Tunel
##  2 AS-0321    A-1955.002 Moon Pyramid  Structure 1                Tunel 3
##  3 AS-0322    A-1985.002 Moon Pyramid  Structure 1                Tunel 3
##  4 AS-0323    A-1592.001 Moon Pyramid  Structure 1                Tunel 3
##  5 AS-0324    A-1917.001 Moon Pyramid  Structure 1                Tunel 3
##  6 AS-0325    A-1955.001 Moon Pyramid  Structure 1                Tunel 3
##  7 AS-0326    A-1962.001 Moon Pyramid  Structure 1                Tunel 3
##  8 AS-0327    A-1962.002 Moon Pyramid  Structure 1                Tunel 3
##  9 AS-0328    A-1962.003 Moon Pyramid  Structure 1                Tunel 3
## 10 AS-0329    A-1962.004 Moon Pyramid  Structure 1                Tunel 3
## # ... with 111 more rows, and 11 more variables:
## #   Provenience.Location.B <chr>, Phase <chr>, Genus <fctr>,
## #   Species <chr>, Element <chr>, Side <chr>, C13ap <dbl>, O18ap <dbl>,
## #   C.P <dbl>, IR.SF <dbl>, Notes <chr>
…
## [1] "Lepus"      "Sylvilagus"

Here I code the merge, selecting only the necessary columns

new<-select(iso, lab_n, Site, Phase, Genus, C13ap, O18ap)
new2<-select(modern, lab_n=Lab_num, Site=State, Phase=Collection.date..yrs.AD., Genus, C13ap=modC13, O18ap=modO18)%>%mutate(Site="modern") #Giving the modern dataset a "site" variable
iso2<-rbind(filter(new,(!(is.na(C13ap)))), new2) #merging with rbind
iso2

## # A tibble: 127 x 6
##      lab_n         Site                    Phase      Genus C13ap O18ap
##      <chr>        <chr>                    <chr>     <fctr> <dbl> <dbl>
##  1 AS-0315 Moon Pyramid Patlachique-Tlamimilolpa      Lepus  -9.1  29.9
##  2 AS-0321 Moon Pyramid Patlachique-Tlamimilolpa Sylvilagus  -8.9  29.2
##  3 AS-0322 Moon Pyramid Patlachique-Tlamimilolpa Sylvilagus -10.6  27.3
##  4 AS-0323 Moon Pyramid Patlachique-Tlamimilolpa Sylvilagus  -8.8  24.8
##  5 AS-0324 Moon Pyramid Patlachique-Tlamimilolpa      Lepus  -5.8  27.1
##  6 AS-0325 Moon Pyramid Patlachique-Tlamimilolpa Sylvilagus  -8.9  28.5
##  7 AS-0326 Moon Pyramid Patlachique-Tlamimilolpa      Lepus  -6.4  25.4
##  8 AS-0327 Moon Pyramid Patlachique-Tlamimilolpa Sylvilagus  -9.2  26.1
##  9 AS-0328 Moon Pyramid Patlachique-Tlamimilolpa Sylvilagus  -9.9  27.6
## 10 AS-0329 Moon Pyramid Patlachique-Tlamimilolpa Sylvilagus -10.3  27.3
## # ... with 117 more rows
…
