Module 06
…
The {dplyr} package also makes it easy to summarize data using more convenient functions than aggregate(). For example:

s <- summarise(d, avgF = mean(Body_mass_female_mean, na.rm = TRUE), avgM = mean(Body_mass_male_mean, 
    na.rm = TRUE))
s

##       avgF     avgM
## 1 5396.474 8111.801

The group_by() function allows us to do apply summary functions to sets of observations defined by a categorical variable, as we did above with aggregate().

byFamily <- group_by(d, Family)
byFamily

## # A tibble: 213 x 44
## # Groups:   Family [14]
##                Scientific_Name          Family          Genus      Species
##                          <chr>           <chr>          <chr>        <chr>
##  1 Allenopithecus_nigroviridis Cercopithecidae Allenopithecus nigroviridis
##  2         Allocebus_trichotis Cercopithecidae      Allocebus    trichotis
##  3           Alouatta_belzebul        Atelidae       Alouatta     belzebul
##  4             Alouatta_caraya        Atelidae       Alouatta       caraya
##  5            Alouatta_guariba        Atelidae       Alouatta      guariba
##  6           Alouatta_palliata        Atelidae       Alouatta     palliata
##  7              Alouatta_pigra        Atelidae       Alouatta        pigra
##  8          Alouatta_seniculus        Atelidae       Alouatta    seniculus
##  9                Aotus_azarai         Cebidae          Aotus       azarai
## 10             Aotus_brumbacki         Cebidae          Aotus    brumbacki
## # ... with 203 more rows, and 40 more variables:
## #   Brain_Size_Species_Mean <dbl>, Brain_Size_Female_Mean <dbl>,
## #   Brain_size_Ref <chr>, Body_mass_male_mean <dbl>,
## #   Body_mass_female_mean <dbl>, Mass_Dimorphism <dbl>, Mass_Ref <chr>,
## #   MeanGroupSize <dbl>, AdultMales <dbl>, AdultFemale <dbl>,
## #   AdultSexRatio <dbl>, Social_Organization_Ref <chr>,
## #   InterbirthInterval_d <dbl>, Gestation <dbl>, WeaningAge_d <dbl>,
## #   MaxLongevity_m <dbl>, LitterSz <dbl>, Life_History_Ref <chr>,
## #   GR_MidRangeLat_dd <dbl>, Precip_Mean_mm <dbl>, Temp_Mean_degC <dbl>,
…
