…
    ## 
    ## $hierarchy
    ## $hierarchy[[1]]
    ##                name     key    rank
    ## 1          Animalia       1 kingdom
    ## 2          Chordata      44  phylum
    ## 3          Mammalia     359   class
    ## 4          Primates     798   order
    ## 5    Callitrichidae    9620  family
    ## 6          Saguinus 2436465   genus
    ## 7 Saguinus leucopus 2436476 species
    ## 
    ## 
    ## $data
    ## # A tibble: 371 × 93
    ##                 name        key decimalLatitude decimalLongitude  issues
    ##                <chr>      <int>           <dbl>            <dbl>   <chr>
    ## 1  Saguinus leucopus 1316534171         6.02944        -74.58460 cdround
    ## 2  Saguinus leucopus 1316534160         6.02565        -74.58514 cdround
    ## 3  Saguinus leucopus 1316534183         6.04200        -74.59914 cdround
    ## 4  Saguinus leucopus 1316534184         6.05523        -74.59361 cdround
    ## 5  Saguinus leucopus 1316534304         5.67121        -74.77817        
    ## 6  Saguinus leucopus 1316534328         5.67620        -74.77589        
    ## 7  Saguinus leucopus 1316534318         5.67634        -74.77375        
    ## 8  Saguinus leucopus 1316534350         5.67239        -74.77451        
    ## 9  Saguinus leucopus 1316534307         5.68439        -74.78044        
    ## 10 Saguinus leucopus 1316534336         5.67618        -74.77381        
    ## # ... with 361 more rows, and 88 more variables: datasetKey <chr>,
    ## #   publishingOrgKey <chr>, publishingCountry <chr>, protocol <chr>,
    ## #   lastCrawled <chr>, lastParsed <chr>, crawlId <int>, extensions <chr>,
    ## #   basisOfRecord <chr>, individualCount <int>, taxonKey <int>,
    ## #   kingdomKey <int>, phylumKey <int>, classKey <int>, orderKey <int>,
    ## #   familyKey <int>, genusKey <int>, speciesKey <int>,
    ## #   scientificName <chr>, kingdom <chr>, phylum <chr>, order <chr>,
    ## #   family <chr>, genus <chr>, species <chr>, genericName <chr>,
    ## #   specificEpithet <chr>, taxonRank <chr>, dateIdentified <chr>,
…
