Lab 5 - Neutrality Statistics and Selection
…
##  Conflicts  tidyverse_conflicts() 
## x dplyr::filter() masks stats::filter()
## x dplyr::lag()    masks stats::lag()

pihs<-as_tibble(ihs$ihs[,c(2,4)])

sig.pihs<-
  pihs %>%
  filter(LOGPVALUE >= 2)
sig.pihs

## # A tibble: 30 x 2
##    POSITION LOGPVALUE
##       <dbl>     <dbl>
##  1 45088669      2.43
##  2 45146425      2.10
##  3 45179630      2.31
##  4 45184378      2.17
##  5 45185304      2.08
##  6 45186590      2.06
##  7 45190085      2.09
##  8 45192716      2.03
##  9 45267163      2.16
## 10 45548210      2.06
## #  with 20 more rows
…
